{
  "images": [
    {
      "idiom": "universal",
      "scale": "1x",
      "filename": "x.png"
    },
    {
      "idiom": "universal",
      "scale": "2x"
    },
    {
      "idiom": "universal",
      "scale": "3x"
    }
  ],
  "info": {
    "version": 1,
    "author": "xcode"
  }
}